Untitled
…
Negative selection

## 
## Attaching package: 'dplyr'

## The following objects are masked from 'package:stats':
## 
##     filter, lag

## The following objects are masked from 'package:base':
## 
##     intersect, setdiff, setequal, union

## # A tibble: 100 x 2
##        a     d
##    <int> <int>
##  1     1     1
##  2     2     2
##  3     3     3
##  4     4     4
##  5     5     5
##  6     6     6
##  7     7     7
##  8     8     8
##  9     9     9
## 10    10    10
## #  with 90 more rows

## # A tibble: 100 x 2
##        a     d
##    <int> <int>
##  1     1     1
##  2     2     2
##  3     3     3
##  4     4     4
##  5     5     5
##  6     6     6
##  7     7     7
##  8     8     8
##  9     9     9
## 10    10    10
## #  with 90 more rows
…
## 88   88  88
## 89   89  89
## 90   90  90
## 91   91  91
## 92   92  92
## 93   93  93
## 94   94  94
## 95   95  95
## 96   96  96
## 97   97  97
## 98   98  98
## 99   99  99
## 100 100 100

## # A tibble: 100 x 2
##        a     d
##    <int> <int>
##  1     1     1
##  2     2     2
##  3     3     3
##  4     4     4
##  5     5     5
##  6     6     6
##  7     7     7
##  8     8     8
##  9     9     9
## 10    10    10
## #  with 90 more rows
…
## Error in read_sfc(system.file("extdata/roads.shp", package = "geospaar")): could not find function "read_sfc"

Arranging data

## Error in groupby(., uuid): could not find function "groupby"

## `summarise()` ungrouping output (override with `.groups` argument)

## Simple feature collection with 793 features and 2 fields
## geometry type:  GEOMETRY
## dimension:      XY
## bbox:           xmin: 24.777 ymin: -18.222 xmax: 33.332 ymax: -8.997
## CRS:            NA
## # A tibble: 793 x 3
##    uuid         n         geometry
##    <chr>    <int>          <POINT>
##  1 064beba0    62 (26.752 -16.862)
##  2 732af424    61 (26.833 -16.818)
##  3 46fa47e5    59  (26.93 -17.054)
##  4 b0e82f78    59 (27.339 -16.834)
##  5 0360d642    58 (26.825 -16.604)
##  6 975ffe94    58 (26.831 -16.818)
##  7 c32d45ee    58 (27.068 -16.939)
##  8 cca69f84    58 (26.974 -16.752)
##  9 d1e20dc3    58 (26.912 -16.254)
## 10 e6c01a65    58 (27.032 -16.961)
## #  with 783 more rows
…
